…
### 1.2 Make a plot comparing number of blueberry farms by region

While in the hw04 description activity 2 (re-shaping) involves plotting life expectancy in 2 countries to compare (using multiple years of data), here I only have 2 years of data, but am interested to compare multiple regions. Let's figure out which regions have the highest number of blueberry farms.


```r
bf %>% 
  arrange(blueberry_farms) # Need to integrate argument for descending order?
```

```
## # A tibble: 58 x 3
##                 CD_Region  year blueberry_farms
##                     <chr> <chr>           <dbl>
##  1          East Kootenay  2016               0
##  2       Mount Waddington  2011               0
##  3       Northern Rockies  2011               0
##  4       Northern Rockies  2016               0
##  5            Peace River  2011               0
##  6 Skeena-Queen Charlotte  2011               0
##  7                Stikine  2011               0
##  8                Stikine  2016               0
##  9          East Kootenay  2011               1
## 10       Mount Waddington  2016               1
## # ... with 48 more rows
```
…
