…
## 1. Exploring the data

#### 1.1 Dataset type/class

One of the first questions to ask when working with a new dataset would be, what kind of form/structure does this dataset have? 

Because I have just done some reading about ```dplyr```, I assume (and know from previous assignments) that this is a dataframe, but if I wanted to confirm I could just call up the dataset to see a nicely formatted snippet of the rows and columns and what it is:


```r
gapminder
```

```
## # A tibble: 1,704 x 6
##        country continent  year lifeExp      pop gdpPercap
##         <fctr>    <fctr> <int>   <dbl>    <int>     <dbl>
##  1 Afghanistan      Asia  1952  28.801  8425333  779.4453
##  2 Afghanistan      Asia  1957  30.332  9240934  820.8530
##  3 Afghanistan      Asia  1962  31.997 10267083  853.1007
##  4 Afghanistan      Asia  1967  34.020 11537966  836.1971
##  5 Afghanistan      Asia  1972  36.088 13079460  739.9811
##  6 Afghanistan      Asia  1977  38.438 14880372  786.1134
##  7 Afghanistan      Asia  1982  39.854 12881816  978.0114
##  8 Afghanistan      Asia  1987  40.822 13867957  852.3959
##  9 Afghanistan      Asia  1992  41.674 16317921  649.3414
## 10 Afghanistan      Asia  1997  41.763 22227415  635.3414
## # ... with 1,694 more rows
```
…
#### 4.3 Life expectancy in Rwanda, Afghanistan, Haiti & Ireland

Then maybe it would be nice to take a look at a few coutries that may show interesting temporal changes in life expectancy. To do this I'd like to call up the data for 4 countries from 4 different continents, and take a closer look at some years more recently...


```r
gapminder %>% 
    filter(country %in% c("Rwanda", "Afghanistan", "Haiti", "Ireland"), 
           year >= 1970) %>% 
    select(country, year, lifeExp)
```

```
## # A tibble: 32 x 3
##        country  year lifeExp
##         <fctr> <int>   <dbl>
##  1 Afghanistan  1972  36.088
##  2 Afghanistan  1977  38.438
##  3 Afghanistan  1982  39.854
##  4 Afghanistan  1987  40.822
##  5 Afghanistan  1992  41.674
##  6 Afghanistan  1997  41.763
##  7 Afghanistan  2002  42.129
##  8 Afghanistan  2007  43.828
##  9       Haiti  1972  48.042
## 10       Haiti  1977  49.923
## # ... with 22 more rows
```
…
