…
#### 2.1 Table

I'll create a table that uses the `mutate` function to display changes in life expectancy over time by continent. I will also select only the variables I want to display (dropping pop and gdpPercap).


```r
gapminder %>%
  group_by(continent) %>%
  select(country, continent, year, lifeExp) %>%
  mutate(lifeExp_change = lifeExp - lifeExp[1])
```

```
## # A tibble: 1,704 x 5
## # Groups:   continent [5]
##        country continent  year lifeExp lifeExp_change
##         <fctr>    <fctr> <int>   <dbl>          <dbl>
##  1 Afghanistan      Asia  1952  28.801          0.000
##  2 Afghanistan      Asia  1957  30.332          1.531
##  3 Afghanistan      Asia  1962  31.997          3.196
##  4 Afghanistan      Asia  1967  34.020          5.219
##  5 Afghanistan      Asia  1972  36.088          7.287
##  6 Afghanistan      Asia  1977  38.438          9.637
##  7 Afghanistan      Asia  1982  39.854         11.053
##  8 Afghanistan      Asia  1987  40.822         12.021
##  9 Afghanistan      Asia  1992  41.674         12.873
## 10 Afghanistan      Asia  1997  41.763         12.962
## # ... with 1,694 more rows
```
…
