hw03
…
This boxplot clearly depicts how the spread of GDP per capita differs between continents, and allows us to get a much better sense of the spread of values more quickly than with the table. For example, the range of values for Africa is quite narrow, versus that of Asia or Europe, both of which exhibit different trends in central tendency.

2. Changes in life expectancy over time by continent

2.1 Table

Ill create a table that uses the mutate function to display changes in life expectancy over time by continent. I will also select only the variables I want to display (dropping pop and gdpPercap).

gapminder %>%
  group_by(continent) %>%
  select(country, continent, year, lifeExp) %>%
  mutate(lifeExp_change = lifeExp - lifeExp[1])

## # A tibble: 1,704 x 5
## # Groups:   continent [5]
##        country continent  year lifeExp lifeExp_change
##         <fctr>    <fctr> <int>   <dbl>          <dbl>
##  1 Afghanistan      Asia  1952  28.801          0.000
##  2 Afghanistan      Asia  1957  30.332          1.531
##  3 Afghanistan      Asia  1962  31.997          3.196
##  4 Afghanistan      Asia  1967  34.020          5.219
##  5 Afghanistan      Asia  1972  36.088          7.287
##  6 Afghanistan      Asia  1977  38.438          9.637
##  7 Afghanistan      Asia  1982  39.854         11.053
##  8 Afghanistan      Asia  1987  40.822         12.021
##  9 Afghanistan      Asia  1992  41.674         12.873
## 10 Afghanistan      Asia  1997  41.763         12.962
## # ... with 1,694 more rows

This table doesnt really allow me to see much, actually. Ill try another method, this time taking the mean life expectancy over the last 20 years in the dataset, and arranging by these values.

gapminder %>%
  filter(year >= 1987) %>%
  group_by(country) %>%
  summarize(mean_lifeExp=mean(lifeExp)) %>%
  arrange(mean_lifeExp)

## # A tibble: 142 x 2
##             country mean_lifeExp
##              <fctr>        <dbl>
##  1           Rwanda      38.6722
##  2     Sierra Leone      40.3632
##  3           Angola      41.0500
##  4      Afghanistan      42.0432
##  5          Liberia      43.6962
##  6           Zambia      43.7472
##  7       Mozambique      43.9194
##  8    Guinea-Bissau      44.2552
##  9          Somalia      44.4098
## 10 Congo, Dem. Rep.      45.3950
## # ... with 132 more rows
…
3.1 Exploring the Americas

My first thought is to explore GDP per capita in Venezuela, which has had a somewhat volatile political and economic history (particularly in the last few years). But before I dive into a specific country and/or variable, Id like to take a look at trends in that continent more broadly to try to pick out some potentially interesting stories.

3.1.1 Life expectancy in the Americas

Lets look at the average value of life expectancy over the last 20 years of the dataset by country (in the Americas).

gapminder %>%
  filter(continent == "Americas", year >= 1987) %>%
  group_by(country)%>%
  summarize(mean_lifeExp=mean(lifeExp))%>%
  arrange(mean_lifeExp)

## # A tibble: 25 x 2
##               country mean_lifeExp
##                <fctr>        <dbl>
##  1              Haiti      56.8898
##  2            Bolivia      61.7390
##  3          Guatemala      65.9428
##  4           Honduras      67.4626
##  5          Nicaragua      68.0024
##  6               Peru      68.0610
##  7        El Salvador      68.4198
##  8             Brazil      69.0092
##  9           Paraguay      69.5020
## 10 Dominican Republic      69.5084
## # ... with 15 more rows
…
